Suite/Test/Step Name,Browser,Description,Start time,End time,Duration,Status
FirstTest,Chrome 71.0.3578.98,,2019-02-04 07:54:07,2019-02-04 07:54:27,20.355s,PASSED
,,,,,,
Test Cases/ExecuteAutomationTC,Chrome 71.0.3578.98,,2019-02-04 07:54:08,2019-02-04 07:54:27,18.870s,PASSED
"openBrowser("""")",Chrome 71.0.3578.98,,2019-02-04 07:54:09,2019-02-04 07:54:19,9.328s,PASSED
"openBrowser("""")",Chrome 71.0.3578.98,,2019-02-04 07:54:19,2019-02-04 07:54:21,2.553s,PASSED
"navigateToUrl(""http://executeautomation.com/demosite/Login.html"")",Chrome 71.0.3578.98,,2019-02-04 07:54:21,2019-02-04 07:54:23,1.768s,PASSED
"setText(findTestObject(""EAOR/Page_Execute Automation/input_UserName""), ""admin"")",Chrome 71.0.3578.98,,2019-02-04 07:54:23,2019-02-04 07:54:24,1.058s,PASSED
"setText(findTestObject(""EAOR/Page_Execute Automation/input_Password""), ""admin"")",Chrome 71.0.3578.98,,2019-02-04 07:54:24,2019-02-04 07:54:25,0.436s,PASSED
"click(findTestObject(""EAOR/Page_Execute Automation/input_Login""))",Chrome 71.0.3578.98,,2019-02-04 07:54:25,2019-02-04 07:54:25,0.684s,PASSED
"selectOptionByValue(findTestObject(""EAOR/Page_Execute Automation/select_SelectMr.Ms.""), ""1"", true)",Chrome 71.0.3578.98,,2019-02-04 07:54:25,2019-02-04 07:54:26,0.470s,PASSED
"setText(findTestObject(""EAOR/Page_Execute Automation/input_Initial""), ""KK"")",Chrome 71.0.3578.98,,2019-02-04 07:54:26,2019-02-04 07:54:26,0.255s,PASSED
"setText(findTestObject(""EAOR/Page_Execute Automation/input_FirstName""), ""Karthik"")",Chrome 71.0.3578.98,,2019-02-04 07:54:26,2019-02-04 07:54:26,0.442s,PASSED
"click(findTestObject(""EAOR/Page_Execute Automation/input_Hindi""))",Chrome 71.0.3578.98,,2019-02-04 07:54:26,2019-02-04 07:54:27,0.218s,PASSED
closeBrowser(),Chrome 71.0.3578.98,,2019-02-04 07:54:27,2019-02-04 07:54:27,0.179s,PASSED
closeBrowser(),Chrome 71.0.3578.98,,2019-02-04 07:54:27,2019-02-04 07:54:27,0.001s,PASSED
