Suite/Test/Step Name,Browser,Description,Start time,End time,Duration,Status
FirstTest,Chrome 71.0.3578.98,,2019-01-18 15:47:53,2019-01-18 15:48:08,14.314s,PASSED
,,,,,,
Test Cases/ExecuteAutomationTC,Chrome 71.0.3578.98,,2019-01-18 15:47:54,2019-01-18 15:48:08,13.408s,PASSED
"openBrowser("""")",Chrome 71.0.3578.98,,2019-01-18 15:47:55,2019-01-18 15:48:01,5.439s,PASSED
"openBrowser("""")",Chrome 71.0.3578.98,,2019-01-18 15:48:01,2019-01-18 15:48:03,1.957s,PASSED
"navigateToUrl(""http://executeautomation.com/demosite/Login.html"")",Chrome 71.0.3578.98,,2019-01-18 15:48:03,2019-01-18 15:48:04,1.319s,PASSED
"setText(findTestObject(""EAOR/Page_Execute Automation/input_UserName""), ""admin"")",Chrome 71.0.3578.98,,2019-01-18 15:48:04,2019-01-18 15:48:04,0.382s,PASSED
"setText(findTestObject(""EAOR/Page_Execute Automation/input_Password""), ""admin"")",Chrome 71.0.3578.98,,2019-01-18 15:48:04,2019-01-18 15:48:04,0.173s,PASSED
"click(findTestObject(""EAOR/Page_Execute Automation/input_Login""))",Chrome 71.0.3578.98,,2019-01-18 15:48:04,2019-01-18 15:48:07,2.093s,PASSED
"selectOptionByValue(findTestObject(""EAOR/Page_Execute Automation/select_SelectMr.Ms.""), ""1"", true)",Chrome 71.0.3578.98,,2019-01-18 15:48:07,2019-01-18 15:48:07,0.310s,PASSED
"setText(findTestObject(""EAOR/Page_Execute Automation/input_Initial""), ""KK"")",Chrome 71.0.3578.98,,2019-01-18 15:48:07,2019-01-18 15:48:07,0.225s,PASSED
"setText(findTestObject(""EAOR/Page_Execute Automation/input_FirstName""), ""Karthik"")",Chrome 71.0.3578.98,,2019-01-18 15:48:07,2019-01-18 15:48:07,0.197s,PASSED
"click(findTestObject(""EAOR/Page_Execute Automation/input_Hindi""))",Chrome 71.0.3578.98,,2019-01-18 15:48:07,2019-01-18 15:48:07,0.115s,PASSED
closeBrowser(),Chrome 71.0.3578.98,,2019-01-18 15:48:07,2019-01-18 15:48:07,0.116s,PASSED
closeBrowser(),Chrome 71.0.3578.98,,2019-01-18 15:48:07,2019-01-18 15:48:08,0.002s,PASSED
