Suite/Test/Step Name,Browser,Description,Start time,End time,Duration,Status
FirstTest,Chrome 71.0.3578.98,,2019-01-17 10:11:03,2019-01-17 10:11:17,14.190s,PASSED
,,,,,,
Test Cases/ExecuteAutomationTC,Chrome 71.0.3578.98,,2019-01-17 10:11:03,2019-01-17 10:11:17,13.546s,PASSED
"openBrowser("""")",Chrome 71.0.3578.98,,2019-01-17 10:11:04,2019-01-17 10:11:09,4.988s,PASSED
"openBrowser("""")",Chrome 71.0.3578.98,,2019-01-17 10:11:09,2019-01-17 10:11:11,1.534s,PASSED
"navigateToUrl(""http://executeautomation.com/demosite/Login.html"")",Chrome 71.0.3578.98,,2019-01-17 10:11:11,2019-01-17 10:11:13,2.248s,PASSED
"setText(findTestObject(""EAOR/Page_Execute Automation/input_UserName""), ""admin"")",Chrome 71.0.3578.98,,2019-01-17 10:11:13,2019-01-17 10:11:14,0.414s,PASSED
"setText(findTestObject(""EAOR/Page_Execute Automation/input_Password""), ""admin"")",Chrome 71.0.3578.98,,2019-01-17 10:11:14,2019-01-17 10:11:14,0.194s,PASSED
"click(findTestObject(""EAOR/Page_Execute Automation/input_Login""))",Chrome 71.0.3578.98,,2019-01-17 10:11:14,2019-01-17 10:11:16,2.315s,PASSED
"selectOptionByValue(findTestObject(""EAOR/Page_Execute Automation/select_SelectMr.Ms.""), ""1"", true)",Chrome 71.0.3578.98,,2019-01-17 10:11:16,2019-01-17 10:11:16,0.289s,PASSED
"setText(findTestObject(""EAOR/Page_Execute Automation/input_Initial""), ""KK"")",Chrome 71.0.3578.98,,2019-01-17 10:11:16,2019-01-17 10:11:17,0.230s,PASSED
"setText(findTestObject(""EAOR/Page_Execute Automation/input_FirstName""), ""Karthik"")",Chrome 71.0.3578.98,,2019-01-17 10:11:17,2019-01-17 10:11:17,0.202s,PASSED
"click(findTestObject(""EAOR/Page_Execute Automation/input_Hindi""))",Chrome 71.0.3578.98,,2019-01-17 10:11:17,2019-01-17 10:11:17,0.116s,PASSED
closeBrowser(),Chrome 71.0.3578.98,,2019-01-17 10:11:17,2019-01-17 10:11:17,0.110s,PASSED
closeBrowser(),Chrome 71.0.3578.98,,2019-01-17 10:11:17,2019-01-17 10:11:17,0.001s,PASSED
